{
  "app-name": "GTS Mobil",
  "executable-url": "https://mirrors.cicku.me/linuxmint/iso/debian/lmde-6-cinnamon-32bit.iso",
  "version-name": "1.0.0.3",
  "version": 1003,
  "relase-notes": "https://girityazilim.com/mobil/relase_notes.txt",
  "patch-url": [
    "https://mirrors.cicku.me/linuxmint/iso/debian/lmde-6-cinnamon-32bit.iso"
  ],
  "full-url": "https://releases.ubuntu.com/22.04.3/ubuntu-22.04.3-desktop-amd64.iso?_gl=1*1j39e2f*_gcl_au*ODI1Mzk0NzU3LjE3MDYwOTY3OTc.&_ga=2.103934019.2141361507.1707489987-1850488801.1706096784",
  "versions": "https://girityazilim.com/mobil/2024.json"
}
